PCBNEW-LibModule-V1  2022-03-17 01:14:33
# encoding utf-8
Units mm
$INDEX
SHDRRA5W70P0X250_1X5_1490X590X490P
$EndINDEX
$MODULE SHDRRA5W70P0X250_1X5_1490X590X490P
Po 0 0 0 15 62328b79 00000000 ~~
Li SHDRRA5W70P0X250_1X5_1490X590X490P
Cd 22-05-7055
Kw Connector
Sc 0
At STD
AR 
Op 0 0 0
T0 0 0 1.27 1.27 0 0.254 N V 21 N "J**"
T1 0 0 1.27 1.27 0 0.254 N I 21 N "SHDRRA5W70P0X250_1X5_1490X590X490P"
DS -2.7 1.4 12.7 1.4 0.05 24
DS 12.7 1.4 12.7 -12.75 0.05 24
DS 12.7 -12.75 -2.7 -12.75 0.05 24
DS -2.7 -12.75 -2.7 1.4 0.05 24
DS -2.45 -6.6 -2.45 -12.5 0.1 24
DS -2.45 -12.5 12.45 -12.5 0.1 24
DS 12.45 -12.5 12.45 -6.6 0.1 24
DS 12.45 -6.6 -2.45 -6.6 0.1 24
DS -2.45 0 -2.45 -12.5 0.2 21
DS -2.45 -12.5 12.45 -12.5 0.2 21
DS 12.45 -12.5 12.45 -6.6 0.2 21
$PAD
Po 0 0
Sh "1" R 1.8 1.8 0 0 900
Dr 1.2 0 0
At STD N 00E0FFFF
Ne 0 ""
$EndPAD
$PAD
Po 2.5 0
Sh "2" C 1.8 1.8 0 0 900
Dr 1.2 0 0
At STD N 00E0FFFF
Ne 0 ""
$EndPAD
$PAD
Po 5 0
Sh "3" C 1.8 1.8 0 0 900
Dr 1.2 0 0
At STD N 00E0FFFF
Ne 0 ""
$EndPAD
$PAD
Po 7.5 0
Sh "4" C 1.8 1.8 0 0 900
Dr 1.2 0 0
At STD N 00E0FFFF
Ne 0 ""
$EndPAD
$PAD
Po 10 0
Sh "5" C 1.8 1.8 0 0 900
Dr 1.2 0 0
At STD N 00E0FFFF
Ne 0 ""
$EndPAD
$EndMODULE SHDRRA5W70P0X250_1X5_1490X590X490P
$EndLIBRARY
