(kicad_symbol_lib (version 20220914) (generator kicad_symbol_editor)
  (symbol "745C101104JP" (pin_names (offset 1.016) hide) (in_bom yes) (on_board yes)
    (property "Reference" "R" (at -5.08 12.7 0)
      (effects (font (size 1.27 1.27)) (justify left bottom))
    )
    (property "Value" "?" (at -5.08 -15.2654 0)
      (effects (font (size 1.27 1.27)) (justify left bottom))
    )
    (property "Footprint" "CtS_74C101104JP:RESCAV127P640X310X70-10N" (at -22.86 22.86 0)
      (effects (font (size 1.27 1.27)) (justify left bottom) hide)
    )
    (property "Datasheet" "https://www.mouser.com/datasheet/2/96/74x-1133528.pdf" (at -22.86 17.78 0)
      (effects (font (size 1.27 1.27)) (justify left bottom) hide)
    )
    (property "Manufacturer" "CTS" (at -22.86 20.32 0)
      (effects (font (size 1.27 1.27)) (justify left bottom) hide)
    )
    (property "mouser#" "774-745C101104JP" (at -19.05 20.32 0)
      (effects (font (size 1.27 1.27)) (justify left bottom) hide)
    )
    (property "Mfg Part #" "745C101104JP" (at 0 0 0)
      (effects (font (size 1.27 1.27)))
    )
    (property "Description" "Resistor Array" (at 0 0 0)
      (effects (font (size 1.27 1.27)))
    )
    (property "ki_description" "Resistor array, 100k, SMD" (at 0 0 0)
      (effects (font (size 1.27 1.27)) hide)
    )
    (symbol "745C101104JP_0_0"
      (circle (center 0 -10.16) (radius 0.1778)
        (stroke (width 0.3556) (type default))
        (fill (type none))
      )
      (circle (center 0 -5.08) (radius 0.1778)
        (stroke (width 0.3556) (type default))
        (fill (type none))
      )
      (polyline
        (pts
          (xy -12.7 -10.16)
          (xy 0 -10.16)
        )
        (stroke (width 0.254) (type default))
        (fill (type none))
      )
      (polyline
        (pts
          (xy -12.7 -5.08)
          (xy -12.065 -3.175)
        )
        (stroke (width 0.254) (type default))
        (fill (type none))
      )
      (polyline
        (pts
          (xy -12.7 0)
          (xy -12.065 1.905)
        )
        (stroke (width 0.254) (type default))
        (fill (type none))
      )
      (polyline
        (pts
          (xy -12.7 5.08)
          (xy -12.065 6.985)
        )
        (stroke (width 0.254) (type default))
        (fill (type none))
      )
      (polyline
        (pts
          (xy -12.7 10.16)
          (xy -12.065 12.065)
        )
        (stroke (width 0.254) (type default))
        (fill (type none))
      )
      (polyline
        (pts
          (xy -12.065 -3.175)
          (xy -10.795 -6.985)
        )
        (stroke (width 0.254) (type default))
        (fill (type none))
      )
      (polyline
        (pts
          (xy -12.065 1.905)
          (xy -10.795 -1.905)
        )
        (stroke (width 0.254) (type default))
        (fill (type none))
      )
      (polyline
        (pts
          (xy -12.065 6.985)
          (xy -10.795 3.175)
        )
        (stroke (width 0.254) (type default))
        (fill (type none))
      )
      (polyline
        (pts
          (xy -12.065 12.065)
          (xy -10.795 8.255)
        )
        (stroke (width 0.254) (type default))
        (fill (type none))
      )
      (polyline
        (pts
          (xy -10.795 -6.985)
          (xy -9.525 -3.175)
        )
        (stroke (width 0.254) (type default))
        (fill (type none))
      )
      (polyline
        (pts
          (xy -10.795 -1.905)
          (xy -9.525 1.905)
        )
        (stroke (width 0.254) (type default))
        (fill (type none))
      )
      (polyline
        (pts
          (xy -10.795 3.175)
          (xy -9.525 6.985)
        )
        (stroke (width 0.254) (type default))
        (fill (type none))
      )
      (polyline
        (pts
          (xy -10.795 8.255)
          (xy -9.525 12.065)
        )
        (stroke (width 0.254) (type default))
        (fill (type none))
      )
      (polyline
        (pts
          (xy -9.525 -3.175)
          (xy -8.255 -6.985)
        )
        (stroke (width 0.254) (type default))
        (fill (type none))
      )
      (polyline
        (pts
          (xy -9.525 1.905)
          (xy -8.255 -1.905)
        )
        (stroke (width 0.254) (type default))
        (fill (type none))
      )
      (polyline
        (pts
          (xy -9.525 6.985)
          (xy -8.255 3.175)
        )
        (stroke (width 0.254) (type default))
        (fill (type none))
      )
      (polyline
        (pts
          (xy -9.525 12.065)
          (xy -8.255 8.255)
        )
        (stroke (width 0.254) (type default))
        (fill (type none))
      )
      (polyline
        (pts
          (xy -8.255 -6.985)
          (xy -6.985 -3.175)
        )
        (stroke (width 0.254) (type default))
        (fill (type none))
      )
      (polyline
        (pts
          (xy -8.255 -1.905)
          (xy -6.985 1.905)
        )
        (stroke (width 0.254) (type default))
        (fill (type none))
      )
      (polyline
        (pts
          (xy -8.255 3.175)
          (xy -6.985 6.985)
        )
        (stroke (width 0.254) (type default))
        (fill (type none))
      )
      (polyline
        (pts
          (xy -8.255 8.255)
          (xy -6.985 12.065)
        )
        (stroke (width 0.254) (type default))
        (fill (type none))
      )
      (polyline
        (pts
          (xy -6.985 -3.175)
          (xy -5.715 -6.985)
        )
        (stroke (width 0.254) (type default))
        (fill (type none))
      )
      (polyline
        (pts
          (xy -6.985 1.905)
          (xy -5.715 -1.905)
        )
        (stroke (width 0.254) (type default))
        (fill (type none))
      )
      (polyline
        (pts
          (xy -6.985 6.985)
          (xy -5.715 3.175)
        )
        (stroke (width 0.254) (type default))
        (fill (type none))
      )
      (polyline
        (pts
          (xy -6.985 12.065)
          (xy -5.715 8.255)
        )
        (stroke (width 0.254) (type default))
        (fill (type none))
      )
      (polyline
        (pts
          (xy -5.715 -6.985)
          (xy -4.445 -3.175)
        )
        (stroke (width 0.254) (type default))
        (fill (type none))
      )
      (polyline
        (pts
          (xy -5.715 -1.905)
          (xy -4.445 1.905)
        )
        (stroke (width 0.254) (type default))
        (fill (type none))
      )
      (polyline
        (pts
          (xy -5.715 3.175)
          (xy -4.445 6.985)
        )
        (stroke (width 0.254) (type default))
        (fill (type none))
      )
      (polyline
        (pts
          (xy -5.715 8.255)
          (xy -4.445 12.065)
        )
        (stroke (width 0.254) (type default))
        (fill (type none))
      )
      (polyline
        (pts
          (xy -4.445 -3.175)
          (xy -3.175 -6.985)
        )
        (stroke (width 0.254) (type default))
        (fill (type none))
      )
      (polyline
        (pts
          (xy -4.445 1.905)
          (xy -3.175 -1.905)
        )
        (stroke (width 0.254) (type default))
        (fill (type none))
      )
      (polyline
        (pts
          (xy -4.445 6.985)
          (xy -3.175 3.175)
        )
        (stroke (width 0.254) (type default))
        (fill (type none))
      )
      (polyline
        (pts
          (xy -4.445 12.065)
          (xy -3.175 8.255)
        )
        (stroke (width 0.254) (type default))
        (fill (type none))
      )
      (polyline
        (pts
          (xy -3.175 -6.985)
          (xy -2.54 -5.08)
        )
        (stroke (width 0.254) (type default))
        (fill (type none))
      )
      (polyline
        (pts
          (xy -3.175 -1.905)
          (xy -2.54 0)
        )
        (stroke (width 0.254) (type default))
        (fill (type none))
      )
      (polyline
        (pts
          (xy -3.175 3.175)
          (xy -2.54 5.08)
        )
        (stroke (width 0.254) (type default))
        (fill (type none))
      )
      (polyline
        (pts
          (xy -3.175 8.255)
          (xy -2.54 10.16)
        )
        (stroke (width 0.254) (type default))
        (fill (type none))
      )
      (polyline
        (pts
          (xy -2.54 -5.08)
          (xy 2.54 -5.08)
        )
        (stroke (width 0.254) (type default))
        (fill (type none))
      )
      (polyline
        (pts
          (xy -2.54 0)
          (xy 2.54 0)
        )
        (stroke (width 0.254) (type default))
        (fill (type none))
      )
      (polyline
        (pts
          (xy -2.54 5.08)
          (xy 2.54 5.08)
        )
        (stroke (width 0.254) (type default))
        (fill (type none))
      )
      (polyline
        (pts
          (xy -2.54 10.16)
          (xy 0 10.16)
        )
        (stroke (width 0.254) (type default))
        (fill (type none))
      )
      (polyline
        (pts
          (xy 0 -10.16)
          (xy 0 10.16)
        )
        (stroke (width 0.254) (type default))
        (fill (type none))
      )
      (polyline
        (pts
          (xy 0 -10.16)
          (xy 2.54 -10.16)
        )
        (stroke (width 0.254) (type default))
        (fill (type none))
      )
      (polyline
        (pts
          (xy 0 10.16)
          (xy 12.7 10.16)
        )
        (stroke (width 0.254) (type default))
        (fill (type none))
      )
      (polyline
        (pts
          (xy 3.175 -8.255)
          (xy 2.54 -10.16)
        )
        (stroke (width 0.254) (type default))
        (fill (type none))
      )
      (polyline
        (pts
          (xy 3.175 -3.175)
          (xy 2.54 -5.08)
        )
        (stroke (width 0.254) (type default))
        (fill (type none))
      )
      (polyline
        (pts
          (xy 3.175 1.905)
          (xy 2.54 0)
        )
        (stroke (width 0.254) (type default))
        (fill (type none))
      )
      (polyline
        (pts
          (xy 3.175 6.985)
          (xy 2.54 5.08)
        )
        (stroke (width 0.254) (type default))
        (fill (type none))
      )
      (polyline
        (pts
          (xy 4.445 -12.065)
          (xy 3.175 -8.255)
        )
        (stroke (width 0.254) (type default))
        (fill (type none))
      )
      (polyline
        (pts
          (xy 4.445 -6.985)
          (xy 3.175 -3.175)
        )
        (stroke (width 0.254) (type default))
        (fill (type none))
      )
      (polyline
        (pts
          (xy 4.445 -1.905)
          (xy 3.175 1.905)
        )
        (stroke (width 0.254) (type default))
        (fill (type none))
      )
      (polyline
        (pts
          (xy 4.445 3.175)
          (xy 3.175 6.985)
        )
        (stroke (width 0.254) (type default))
        (fill (type none))
      )
      (polyline
        (pts
          (xy 5.715 -8.255)
          (xy 4.445 -12.065)
        )
        (stroke (width 0.254) (type default))
        (fill (type none))
      )
      (polyline
        (pts
          (xy 5.715 -3.175)
          (xy 4.445 -6.985)
        )
        (stroke (width 0.254) (type default))
        (fill (type none))
      )
      (polyline
        (pts
          (xy 5.715 1.905)
          (xy 4.445 -1.905)
        )
        (stroke (width 0.254) (type default))
        (fill (type none))
      )
      (polyline
        (pts
          (xy 5.715 6.985)
          (xy 4.445 3.175)
        )
        (stroke (width 0.254) (type default))
        (fill (type none))
      )
      (polyline
        (pts
          (xy 6.985 -12.065)
          (xy 5.715 -8.255)
        )
        (stroke (width 0.254) (type default))
        (fill (type none))
      )
      (polyline
        (pts
          (xy 6.985 -6.985)
          (xy 5.715 -3.175)
        )
        (stroke (width 0.254) (type default))
        (fill (type none))
      )
      (polyline
        (pts
          (xy 6.985 -1.905)
          (xy 5.715 1.905)
        )
        (stroke (width 0.254) (type default))
        (fill (type none))
      )
      (polyline
        (pts
          (xy 6.985 3.175)
          (xy 5.715 6.985)
        )
        (stroke (width 0.254) (type default))
        (fill (type none))
      )
      (polyline
        (pts
          (xy 8.255 -8.255)
          (xy 6.985 -12.065)
        )
        (stroke (width 0.254) (type default))
        (fill (type none))
      )
      (polyline
        (pts
          (xy 8.255 -3.175)
          (xy 6.985 -6.985)
        )
        (stroke (width 0.254) (type default))
        (fill (type none))
      )
      (polyline
        (pts
          (xy 8.255 1.905)
          (xy 6.985 -1.905)
        )
        (stroke (width 0.254) (type default))
        (fill (type none))
      )
      (polyline
        (pts
          (xy 8.255 6.985)
          (xy 6.985 3.175)
        )
        (stroke (width 0.254) (type default))
        (fill (type none))
      )
      (polyline
        (pts
          (xy 9.525 -12.065)
          (xy 8.255 -8.255)
        )
        (stroke (width 0.254) (type default))
        (fill (type none))
      )
      (polyline
        (pts
          (xy 9.525 -6.985)
          (xy 8.255 -3.175)
        )
        (stroke (width 0.254) (type default))
        (fill (type none))
      )
      (polyline
        (pts
          (xy 9.525 -1.905)
          (xy 8.255 1.905)
        )
        (stroke (width 0.254) (type default))
        (fill (type none))
      )
      (polyline
        (pts
          (xy 9.525 3.175)
          (xy 8.255 6.985)
        )
        (stroke (width 0.254) (type default))
        (fill (type none))
      )
      (polyline
        (pts
          (xy 10.795 -8.255)
          (xy 9.525 -12.065)
        )
        (stroke (width 0.254) (type default))
        (fill (type none))
      )
      (polyline
        (pts
          (xy 10.795 -3.175)
          (xy 9.525 -6.985)
        )
        (stroke (width 0.254) (type default))
        (fill (type none))
      )
      (polyline
        (pts
          (xy 10.795 1.905)
          (xy 9.525 -1.905)
        )
        (stroke (width 0.254) (type default))
        (fill (type none))
      )
      (polyline
        (pts
          (xy 10.795 6.985)
          (xy 9.525 3.175)
        )
        (stroke (width 0.254) (type default))
        (fill (type none))
      )
      (polyline
        (pts
          (xy 12.065 -12.065)
          (xy 10.795 -8.255)
        )
        (stroke (width 0.254) (type default))
        (fill (type none))
      )
      (polyline
        (pts
          (xy 12.065 -6.985)
          (xy 10.795 -3.175)
        )
        (stroke (width 0.254) (type default))
        (fill (type none))
      )
      (polyline
        (pts
          (xy 12.065 -1.905)
          (xy 10.795 1.905)
        )
        (stroke (width 0.254) (type default))
        (fill (type none))
      )
      (polyline
        (pts
          (xy 12.065 3.175)
          (xy 10.795 6.985)
        )
        (stroke (width 0.254) (type default))
        (fill (type none))
      )
      (polyline
        (pts
          (xy 12.7 -10.16)
          (xy 12.065 -12.065)
        )
        (stroke (width 0.254) (type default))
        (fill (type none))
      )
      (polyline
        (pts
          (xy 12.7 -5.08)
          (xy 12.065 -6.985)
        )
        (stroke (width 0.254) (type default))
        (fill (type none))
      )
      (polyline
        (pts
          (xy 12.7 0)
          (xy 12.065 -1.905)
        )
        (stroke (width 0.254) (type default))
        (fill (type none))
      )
      (polyline
        (pts
          (xy 12.7 5.08)
          (xy 12.065 3.175)
        )
        (stroke (width 0.254) (type default))
        (fill (type none))
      )
      (circle (center 0 0) (radius 0.1778)
        (stroke (width 0.3556) (type default))
        (fill (type none))
      )
      (circle (center 0 5.08) (radius 0.1778)
        (stroke (width 0.3556) (type default))
        (fill (type none))
      )
      (circle (center 0 10.16) (radius 0.1778)
        (stroke (width 0.3556) (type default))
        (fill (type none))
      )
      (pin passive line (at -17.78 10.16 0) (length 5.08)
        (name "~" (effects (font (size 1.016 1.016))))
        (number "1" (effects (font (size 1.016 1.016))))
      )
      (pin passive line (at 17.78 10.16 180) (length 5.08)
        (name "~" (effects (font (size 1.016 1.016))))
        (number "10" (effects (font (size 1.016 1.016))))
      )
      (pin passive line (at -17.78 5.08 0) (length 5.08)
        (name "~" (effects (font (size 1.016 1.016))))
        (number "2" (effects (font (size 1.016 1.016))))
      )
      (pin passive line (at -17.78 0 0) (length 5.08)
        (name "~" (effects (font (size 1.016 1.016))))
        (number "3" (effects (font (size 1.016 1.016))))
      )
      (pin passive line (at -17.78 -5.08 0) (length 5.08)
        (name "~" (effects (font (size 1.016 1.016))))
        (number "4" (effects (font (size 1.016 1.016))))
      )
      (pin passive line (at -17.78 -10.16 0) (length 5.08)
        (name "~" (effects (font (size 1.016 1.016))))
        (number "5" (effects (font (size 1.016 1.016))))
      )
      (pin passive line (at 17.78 -10.16 180) (length 5.08)
        (name "~" (effects (font (size 1.016 1.016))))
        (number "6" (effects (font (size 1.016 1.016))))
      )
      (pin passive line (at 17.78 -5.08 180) (length 5.08)
        (name "~" (effects (font (size 1.016 1.016))))
        (number "7" (effects (font (size 1.016 1.016))))
      )
      (pin passive line (at 17.78 0 180) (length 5.08)
        (name "~" (effects (font (size 1.016 1.016))))
        (number "8" (effects (font (size 1.016 1.016))))
      )
      (pin passive line (at 17.78 5.08 180) (length 5.08)
        (name "~" (effects (font (size 1.016 1.016))))
        (number "9" (effects (font (size 1.016 1.016))))
      )
    )
  )
)
